%YAML 1.1
%TAG !u! tag:unity3d.com,2011:
--- !u!114 &11400000
MonoBehaviour:
  m_ObjectHideFlags: 0
  m_CorrespondingSourceObject: {fileID: 0}
  m_PrefabInstance: {fileID: 0}
  m_PrefabAsset: {fileID: 0}
  m_GameObject: {fileID: 0}
  m_Enabled: 1
  m_EditorHideFlags: 0
  m_Script: {fileID: 11500000, guid: 139c09085c59e8d49b207430bc817640, type: 3}
  m_Name: Battle_Towers
  m_EditorClassIdentifier: 
  towerBase: {fileID: 7045367489506370518, guid: e9bc93f7675df7147803cd31ba1016f3,
    type: 3}
  towerGun: {fileID: 8740507794177766591, guid: b98a66a556ad58749a114d14838ed115,
    type: 3}
  towerDefault: {fileID: 2100000, guid: 17b5545a4fa0db747b71659e8e06276c, type: 2}
  towerSpawn: {fileID: 2100000, guid: 737148530dffaf141bb7547d882e441f, type: 2}
