%YAML 1.1
%TAG !u! tag:unity3d.com,2011:
--- !u!114 &11400000
MonoBehaviour:
  m_ObjectHideFlags: 0
  m_CorrespondingSourceObject: {fileID: 0}
  m_PrefabInstance: {fileID: 0}
  m_PrefabAsset: {fileID: 0}
  m_GameObject: {fileID: 0}
  m_Enabled: 1
  m_EditorHideFlags: 0
  m_Script: {fileID: 11500000, guid: ce2348728dcb83141bd28ffbfabea5f2, type: 3}
  m_Name: AssetsDataBase
  m_EditorClassIdentifier: 
  Bullets:
  - asset: {fileID: 11400000, guid: 028e5758647c1a34c980ca68c5d6d37b, type: 2}
    active: 1
