%YAML 1.1
%TAG !u! tag:unity3d.com,2011:
--- !u!1045 &1
EditorBuildSettings:
  m_ObjectHideFlags: 0
  serializedVersion: 2
  m_Scenes:
  - enabled: 0
    path: 
    guid: 00000000000000000000000000000000
  - enabled: 1
    path: Assets/_aScenes/Battle_Main.unity
    guid: c6f8d30b069478d4491979ca6afc2d88
  - enabled: 1
    path: Assets/_aScenes/Battle_UI_Overlay.unity
    guid: f7f21ce5c0bdb574394b96fa378bd699
  - enabled: 1
    path: Assets/_aScenes/Battle_UI_Windows.unity
    guid: b28958d24df14c748ab0331d7a52e83f
  - enabled: 1
    path: Assets/_aScenes/Utils/Camera_PostFX.unity
    guid: 9dffe48bf18e51342a7aa88734d43db3
  - enabled: 1
    path: Assets/_aScenes/Utils/Camera_Vignette.unity
    guid: 99357ac22fdbb1048bd2b8a712ff04ad
  - enabled: 1
    path: Assets/_aScenes/Loader_Main.unity
    guid: b54ba1d631c3025409cbe97455a38aa0
  - enabled: 1
    path: Assets/_aScenes/Menu_Main.unity
    guid: 5fdf433c8e5316e4cae8df5f495ee10b
  m_configObjects: {}
