%YAML 1.1
%TAG !u! tag:unity3d.com,2011:
--- !u!78 &1
TagManager:
  serializedVersion: 2
  tags:
  - WebDemoController
  layers:
  - Default
  - TransparentFX
  - Ignore Raycast
  - 
  - Water
  - UI
  - 
  - 
  - 
  - 
  - MapItems
  - 
  - 
  - UnitItems
  - 
  - 
  - TowerItems
  - 
  - 
  - 
  - 
  - 
  - 
  - 
  - 
  - 
  - 
  - 
  - PostFX_Bloom
  - 
  - 
  - 
  m_SortingLayers:
  - name: Default
    uniqueID: 0
    locked: 0
  - name: Map_Particles
    uniqueID: 524360443
    locked: 0
  - name: UI
    uniqueID: 335158307
    locked: 0
