%YAML 1.1
%TAG !u! tag:unity3d.com,2011:
--- !u!162 &1
EditorUserSettings:
  m_ObjectHideFlags: 0
  serializedVersion: 4
  m_ConfigSettings:
    RecentlyUsedScenePath-0:
      value: 22424703114646640c3d0f271e264c5f3a18192e293a191d2c20137df7ee3d2cfb
      flags: 0
    RecentlyUsedScenePath-1:
      value: 22424703114646640c3d0f271e264c5f3b12163f130527392367083debf42d
      flags: 0
    RecentlyUsedScenePath-2:
      value: 22424703114646640c3d0f271e264c5f230311263f670531202c0f32ddd03b2bf6c10ea7f234362820
      flags: 0
    RecentlyUsedScenePath-3:
      value: 22424703114646640c3d0f271e264c5f230311263f670531202c0f32ddd63d3fece222fde2742a323016f6
      flags: 0
    RecentlyUsedScenePath-4:
      value: 22424703114646640c3d0f271e264c5f34160c3e202d190504163225e7f23839fba923e7ee2e26
      flags: 0
    RecentlyUsedScenePath-5:
      value: 22424703114646640c3d0f271e264c5f34160c3e202d190504162a3aece43b2ff1a923e7ee2e26
      flags: 0
    RecentlyUsedScenePath-6:
      value: 22424703114646640c3d0f271e264c5f34160c3e202d191d2c20137df7ee3d2cfb
      flags: 0
    vcSharedLogLevel:
      value: 0d5e400f0650
      flags: 0
  m_VCAutomaticAdd: 1
  m_VCDebugCom: 0
  m_VCDebugCmd: 0
  m_VCDebugOut: 0
  m_SemanticMergeMode: 2
  m_VCShowFailedCheckout: 1
  m_VCOverwriteFailedCheckoutAssets: 1
  m_VCProjectOverlayIcons: 1
  m_VCHierarchyOverlayIcons: 1
  m_VCOtherOverlayIcons: 1
  m_VCAllowAsyncUpdate: 0
